Funciones
…
Algo importante a tener en cuenta: cualquier variable o elemento que se crea o modifica dentro del cuento de la función solo existe mientras la función se está ejecutando. Por ejemplo la variable ms que creamos adentro de la función nudos_a_ms() solo existe adentro de esa función. Podés revisar el ambiente de R y comprobar que no hay ninguna variable llamada ms aún luego de ejecutar la función nudos_a_ms() varias veces.

Aplicaciones

Hasta ahora definimos funciones que tal vez no tengan mucha aplicación, al ejecutar estas funciones tampoco guardamos el resultado en una nueva variable porque estabamos probando como funcionaban. Ahora vamos a ver como incorporar todo lo anterior a nuestro flujo de análisis.

Vamos a seguir trabajando con diamantes y el objetivo final será generar una nueva columna que contenga el volumen de cada uno de los diamantes en esa base de datos. Cómo te imaginarás vamos a usar la función mutate() para crear esta nueva columna.

library(datos)
library(dplyr)

diamantes %>% 
  mutate(volumen = x * y * z) # El volumen se calcula como ancho x alto x largo asumiendo que es un cubo

## # A tibble: 53,940 x 11
##    precio quilate corte color claridad profundidad tabla     x     y     z
##     <int>   <dbl> <ord> <ord> <ord>          <dbl> <dbl> <dbl> <dbl> <dbl>
##  1    326   0.23  Ideal E     SI2             61.5    55  3.95  3.98  2.43
##  2    326   0.21  Prem… E     SI1             59.8    61  3.89  3.84  2.31
##  3    327   0.23  Bueno E     VS1             56.9    65  4.05  4.07  2.31
##  4    334   0.290 Prem… I     VS2             62.4    58  4.2   4.23  2.63
##  5    335   0.31  Bueno J     SI2             63.3    58  4.34  4.35  2.75
##  6    336   0.24  Muy … J     VVS2            62.8    57  3.94  3.96  2.48
##  7    336   0.24  Muy … I     VVS1            62.3    57  3.95  3.98  2.47
##  8    337   0.26  Muy … H     SI1             61.9    55  4.07  4.11  2.53
##  9    337   0.22  Regu… E     VS2             65.1    61  3.87  3.78  2.49
## 10    338   0.23  Muy … H     VS1             59.4    61  4     4.05  2.39
## # … with 53,930 more rows, and 1 more variable: volumen <dbl>
…
Definamos esta función que ahora requiere 3 argumentos:

volumen <- function(ancho, alto, largo) {
  stopifnot(is.numeric(ancho), is.numeric(alto), is.numeric(largo))
  
  total <- ancho * alto * largo
  return(total)
}

Ahora con nuestra función definida podemos calcular el volumen:

diamantes %>% 
  mutate(volumen = volumen(x, y, z))

## # A tibble: 53,940 x 11
##    precio quilate corte color claridad profundidad tabla     x     y     z
##     <int>   <dbl> <ord> <ord> <ord>          <dbl> <dbl> <dbl> <dbl> <dbl>
##  1    326   0.23  Ideal E     SI2             61.5    55  3.95  3.98  2.43
##  2    326   0.21  Prem… E     SI1             59.8    61  3.89  3.84  2.31
##  3    327   0.23  Bueno E     VS1             56.9    65  4.05  4.07  2.31
##  4    334   0.290 Prem… I     VS2             62.4    58  4.2   4.23  2.63
##  5    335   0.31  Bueno J     SI2             63.3    58  4.34  4.35  2.75
##  6    336   0.24  Muy … J     VVS2            62.8    57  3.94  3.96  2.48
##  7    336   0.24  Muy … I     VVS1            62.3    57  3.95  3.98  2.47
##  8    337   0.26  Muy … H     SI1             61.9    55  4.07  4.11  2.53
##  9    337   0.22  Regu… E     VS2             65.1    61  3.87  3.78  2.49
## 10    338   0.23  Muy … H     VS1             59.4    61  4     4.05  2.39
## # … with 53,930 more rows, and 1 more variable: volumen <dbl>
…
